…
In that case, have a look at the message(s), check the metadata spreadsheets,
fix accordingly, and finally re-test. If tests succeed, you will receive e.g.

```{r, eval = FALSE}
# > test_data_metadata(data_root = here("data", "spectra", "2018-BDM"))
# Each measurement folder has a corresponding metadata file.
# `date` column entries in the metadata spreadsheet(s)
#       correspond to the expected measurement folder name (date) in the metadata
#       file name(s)
# Measurement data files and metadata records are complete.
# # A tibble: 3,438 x 10
#    date  sample_id sample_id_pos plate_no pos   meas_folder_exp meas_rep_meta file_id
#    <chr> <chr>     <chr>            <int> <chr> <chr>                   <int> <chr>  
#  1 2018… 30017 KB… 30017 KB017 …        1 B1    2018-09-03                  0 30017 …
#  2 2018… 30017 KB… 30017 KB017 …        3 B1    2018-09-03                  1 30017 …
#  3 2018… 30017 KB… 30017 KB017 …        4 B1    2018-09-03                  2 30017 …
#  4 2018… 30017 KB… 30017 KB017 …        5 B1    2018-09-03                  3 30017 …
#  5 2018… 30017 KB… 30017 KB017 …        6 B1    2018-09-03                  4 30017 …
#  6 2018… 30017 KB… 30017 KB017 …        7 B1    2018-09-03                  5 30017 …
#  7 2018… 30017 KB… 30017 KB017 …        8 B1    2018-09-03                  6 30017 …
#  8 2018… 30017 KB… 30017 KB017 …        9 B1    2018-09-03                  7 30017 …
#  9 2018… 30017 KB… 30017 KB017 …        2 D1    2018-09-03                  0 30017 …
# 10 2018… 30015 KB… 30015 KB015 …        1 C1    2018-09-03                  0 30015 …
# # ... with 3,428 more rows, and 2 more variables: sample_id_reps <int>,
# #   date_file <chr>
```
…
